…
## Exploring `flights`

``` r
flights
```

    ## # A tibble: 336,776 x 19
    ##     year month   day dep_time sched_dep_time dep_delay arr_time
    ##    <int> <int> <int>    <int>          <int>     <dbl>    <int>
    ##  1  2013     1     1      517            515         2      830
    ##  2  2013     1     1      533            529         4      850
    ##  3  2013     1     1      542            540         2      923
    ##  4  2013     1     1      544            545        -1     1004
    ##  5  2013     1     1      554            600        -6      812
    ##  6  2013     1     1      554            558        -4      740
    ##  7  2013     1     1      555            600        -5      913
    ##  8  2013     1     1      557            600        -3      709
    ##  9  2013     1     1      557            600        -3      838
    ## 10  2013     1     1      558            600        -2      753
    ## # … with 336,766 more rows, and 12 more variables: sched_arr_time <int>,
    ## #   arr_delay <dbl>, carrier <chr>, flight <int>, tailnum <chr>,
    ## #   origin <chr>, dest <chr>, air_time <dbl>, distance <dbl>, hour <dbl>,
    ## #   minute <dbl>, time_hour <dttm>
…
## `filter`

``` r
# Departed from JFK
# Heading to Burlington VT or to Seattle, WA
# Departed in October, November, December
flights %>% 
  filter(origin == "JFK" & (dest == "BTV" | dest == "SEA") & month >=10)
```

    ## # A tibble: 815 x 19
    ##     year month   day dep_time sched_dep_time dep_delay arr_time
    ##    <int> <int> <int>    <int>          <int>     <dbl>    <int>
    ##  1  2013    10     1      729            735        -6     1049
    ##  2  2013    10     1      853            900        -7     1217
    ##  3  2013    10     1      916            925        -9     1016
    ##  4  2013    10     1     1216           1221        -5     1326
    ##  5  2013    10     1     1452           1459        -7     1602
    ##  6  2013    10     1     1459           1500        -1     1817
    ##  7  2013    10     1     1754           1800        -6     2102
    ##  8  2013    10     1     1825           1830        -5     2159
    ##  9  2013    10     1     1925           1930        -5     2227
    ## 10  2013    10     1     2238           2245        -7     2348
    ## # … with 805 more rows, and 12 more variables: sched_arr_time <int>,
    ## #   arr_delay <dbl>, carrier <chr>, flight <int>, tailnum <chr>,
    ## #   origin <chr>, dest <chr>, air_time <dbl>, distance <dbl>, hour <dbl>,
    ## #   minute <dbl>, time_hour <dttm>

``` r
# not BTV and not SEA
flights %>% 
  filter(origin == "JFK" & !(dest == "BTV" | dest == "SEA") & month >=10)
```

    ## # A tibble: 26,184 x 19
    ##     year month   day dep_time sched_dep_time dep_delay arr_time
    ##    <int> <int> <int>    <int>          <int>     <dbl>    <int>
    ##  1  2013    10     1      536            545        -9      809
    ##  2  2013    10     1      539            545        -6      917
    ##  3  2013    10     1      544            550        -6      912
    ##  4  2013    10     1      549            600       -11      653
    ##  5  2013    10     1      553            600        -7      829
    ##  6  2013    10     1      557            600        -3      851
    ##  7  2013    10     1      606            615        -9      744
    ##  8  2013    10     1      621            630        -9      822
    ##  9  2013    10     1      627            630        -3      917
    ## 10  2013    10     1      627            630        -3      809
    ## # … with 26,174 more rows, and 12 more variables: sched_arr_time <int>,
    ## #   arr_delay <dbl>, carrier <chr>, flight <int>, tailnum <chr>,
    ## #   origin <chr>, dest <chr>, air_time <dbl>, distance <dbl>, hour <dbl>,
    ## #   minute <dbl>, time_hour <dttm>

``` r
#or
flights %>% filter(origin == "JFK" & dest !="BTV" & dest !="SEA" & month >=10)
```

    ## # A tibble: 26,184 x 19
    ##     year month   day dep_time sched_dep_time dep_delay arr_time
    ##    <int> <int> <int>    <int>          <int>     <dbl>    <int>
    ##  1  2013    10     1      536            545        -9      809
    ##  2  2013    10     1      539            545        -6      917
    ##  3  2013    10     1      544            550        -6      912
    ##  4  2013    10     1      549            600       -11      653
    ##  5  2013    10     1      553            600        -7      829
    ##  6  2013    10     1      557            600        -3      851
    ##  7  2013    10     1      606            615        -9      744
    ##  8  2013    10     1      621            630        -9      822
    ##  9  2013    10     1      627            630        -3      917
    ## 10  2013    10     1      627            630        -3      809
    ## # … with 26,174 more rows, and 12 more variables: sched_arr_time <int>,
    ## #   arr_delay <dbl>, carrier <chr>, flight <int>, tailnum <chr>,
    ## #   origin <chr>, dest <chr>, air_time <dbl>, distance <dbl>, hour <dbl>,
    ## #   minute <dbl>, time_hour <dttm>

``` r
# SEA, BTV, PDX, SFO, LAX
flights %>% 
  filter(origin == "JFK" & dest %in% c("BTV", "SFO", "LAX", "PDX", "SEA") & month >=10)
```

    ## # A tibble: 5,930 x 19
    ##     year month   day dep_time sched_dep_time dep_delay arr_time
    ##    <int> <int> <int>    <int>          <int>     <dbl>    <int>
    ##  1  2013    10     1      557            600        -3      851
    ##  2  2013    10     1      627            630        -3      917
    ##  3  2013    10     1      650            700       -10      929
    ##  4  2013    10     1      657            700        -3      946
    ##  5  2013    10     1      658            700        -2      941
    ##  6  2013    10     1      658            700        -2      947
    ##  7  2013    10     1      714            715        -1      949
    ##  8  2013    10     1      729            735        -6     1049
    ##  9  2013    10     1      739            740        -1     1028
    ## 10  2013    10     1      739            745        -6     1032
    ## # … with 5,920 more rows, and 12 more variables: sched_arr_time <int>,
    ## #   arr_delay <dbl>, carrier <chr>, flight <int>, tailnum <chr>,
    ## #   origin <chr>, dest <chr>, air_time <dbl>, distance <dbl>, hour <dbl>,
    ## #   minute <dbl>, time_hour <dttm>
…
### Grouping by more than one variable

``` r
by_origin_monthly <- 
  weather %>% 
  group_by(origin, month) %>% 
  summarise(count = n())
by_origin_monthly
```

    ## # A tibble: 36 x 3
    ## # Groups:   origin [3]
    ##    origin month count
    ##    <chr>  <dbl> <int>
    ##  1 EWR        1   742
    ##  2 EWR        2   669
    ##  3 EWR        3   743
    ##  4 EWR        4   720
    ##  5 EWR        5   744
    ##  6 EWR        6   720
    ##  7 EWR        7   741
    ##  8 EWR        8   740
    ##  9 EWR        9   719
    ## 10 EWR       10   736
    ## # … with 26 more rows
…
``` r
#LC4.6: Mean and SD of temp for each day
weather %>% 
  group_by(month,day) %>% 
  summarise(count = n(), mean_temp = mean(temp, na.rm = TRUE), sd_temp= sd(temp, na.rm = TRUE))
```

    ## # A tibble: 364 x 5
    ## # Groups:   month [12]
    ##    month   day count mean_temp sd_temp
    ##    <dbl> <int> <int>     <dbl>   <dbl>
    ##  1     1     1    67      37.0    4.00
    ##  2     1     2    72      28.7    3.45
    ##  3     1     3    72      30.0    2.58
    ##  4     1     4    72      34.9    2.45
    ##  5     1     5    72      37.2    4.01
    ##  6     1     6    71      40.1    4.40
    ##  7     1     7    72      40.6    3.68
    ##  8     1     8    72      40.1    5.77
    ##  9     1     9    72      43.2    5.40
    ## 10     1    10    72      43.8    2.95
    ## # … with 354 more rows

``` r
#LC4.7 `group_by(month, origin)` vs `group_by(origin,month)`

by_origin_monthly <- 
  flights %>% 
  group_by(origin, month) %>% 
  summarise(count = n())
by_origin_monthly
```

    ## # A tibble: 36 x 3
    ## # Groups:   origin [3]
    ##    origin month count
    ##    <chr>  <int> <int>
    ##  1 EWR        1  9893
    ##  2 EWR        2  9107
    ##  3 EWR        3 10420
    ##  4 EWR        4 10531
    ##  5 EWR        5 10592
    ##  6 EWR        6 10175
    ##  7 EWR        7 10475
    ##  8 EWR        8 10359
    ##  9 EWR        9  9550
    ## 10 EWR       10 10104
    ## # … with 26 more rows

``` r
by_month_origin <- 
  flights %>% 
  group_by(month,origin) %>% 
  summarise(count = n())
by_month_origin
```

    ## # A tibble: 36 x 3
    ## # Groups:   month [12]
    ##    month origin count
    ##    <int> <chr>  <int>
    ##  1     1 EWR     9893
    ##  2     1 JFK     9161
    ##  3     1 LGA     7950
    ##  4     2 EWR     9107
    ##  5     2 JFK     8421
    ##  6     2 LGA     7423
    ##  7     3 EWR    10420
    ##  8     3 JFK     9697
    ##  9     3 LGA     8717
    ## 10     4 EWR    10531
    ## # … with 26 more rows

``` r
#LC4.8 n(flights) from each airport for each carrier
flights %>% 
  group_by(origin,carrier) %>% 
  summarise(count = n())
```

    ## # A tibble: 35 x 3
    ## # Groups:   origin [3]
    ##    origin carrier count
    ##    <chr>  <chr>   <int>
    ##  1 EWR    9E       1268
    ##  2 EWR    AA       3487
    ##  3 EWR    AS        714
    ##  4 EWR    B6       6557
    ##  5 EWR    DL       4342
    ##  6 EWR    EV      43939
    ##  7 EWR    MQ       2276
    ##  8 EWR    OO          6
    ##  9 EWR    UA      46087
    ## 10 EWR    US       4405
    ## # … with 25 more rows
## `mutate`

As a rough rule of thumb, as long as you are not losing original
information that you might need later, it’s acceptable practice to
overwrite existing data frames. So when creating new variables (columns)
with `mutate`, we may safely overwrite the original data\_frame.

``` r
weather <- 
  weather %>% 
  mutate(temp_in_c = (temp-32)/1.8)
weather
```

    ## # A tibble: 26,115 x 16
    ##    origin  year month   day  hour  temp  dewp humid wind_dir wind_speed
    ##    <chr>  <dbl> <dbl> <int> <int> <dbl> <dbl> <dbl>    <dbl>      <dbl>
    ##  1 EWR     2013     1     1     1  39.0  26.1  59.4      270      10.4 
    ##  2 EWR     2013     1     1     2  39.0  27.0  61.6      250       8.06
    ##  3 EWR     2013     1     1     3  39.0  28.0  64.4      240      11.5 
    ##  4 EWR     2013     1     1     4  39.9  28.0  62.2      250      12.7 
    ##  5 EWR     2013     1     1     5  39.0  28.0  64.4      260      12.7 
    ##  6 EWR     2013     1     1     6  37.9  28.0  67.2      240      11.5 
    ##  7 EWR     2013     1     1     7  39.0  28.0  64.4      240      15.0 
    ##  8 EWR     2013     1     1     8  39.9  28.0  62.2      250      10.4 
    ##  9 EWR     2013     1     1     9  39.9  28.0  62.2      260      15.0 
    ## 10 EWR     2013     1     1    10  41    28.0  59.6      260      13.8 
    ## # … with 26,105 more rows, and 6 more variables: wind_gust <dbl>,
    ## #   precip <dbl>, pressure <dbl>, visib <dbl>, time_hour <dttm>,
    ## #   temp_in_c <dbl>
…
``` r
#Let's see how many flights "gain" time.
flights <- 
  flights %>% 
  mutate(gain = dep_delay - arr_delay)
flights
```

    ## # A tibble: 336,776 x 20
    ##     year month   day dep_time sched_dep_time dep_delay arr_time
    ##    <int> <int> <int>    <int>          <int>     <dbl>    <int>
    ##  1  2013     1     1      517            515         2      830
    ##  2  2013     1     1      533            529         4      850
    ##  3  2013     1     1      542            540         2      923
    ##  4  2013     1     1      544            545        -1     1004
    ##  5  2013     1     1      554            600        -6      812
    ##  6  2013     1     1      554            558        -4      740
    ##  7  2013     1     1      555            600        -5      913
    ##  8  2013     1     1      557            600        -3      709
    ##  9  2013     1     1      557            600        -3      838
    ## 10  2013     1     1      558            600        -2      753
    ## # … with 336,766 more rows, and 13 more variables: sched_arr_time <int>,
    ## #   arr_delay <dbl>, carrier <chr>, flight <int>, tailnum <chr>,
    ## #   origin <chr>, dest <chr>, air_time <dbl>, distance <dbl>, hour <dbl>,
    ## #   minute <dbl>, time_hour <dttm>, gain <dbl>
…
## `arrange`

Sorting of rows in a `data_frame` based on *alphanumeric* values of some
variable/column. In other words, `arrange()` sorts in ascending order by
default unless you override this default behavior by using `desc()`.

``` r
freq_dest <- 
  flights %>% 
  group_by(dest) %>% 
  summarise(count = n())
freq_dest
```

    ## # A tibble: 105 x 2
    ##    dest  count
    ##    <chr> <int>
    ##  1 ABQ     254
    ##  2 ACK     265
    ##  3 ALB     439
    ##  4 ANC       8
    ##  5 ATL   17215
    ##  6 AUS    2439
    ##  7 AVL     275
    ##  8 BDL     443
    ##  9 BGR     375
    ## 10 BHM     297
    ## # … with 95 more rows

``` r
freq_dest <- 
  flights %>% 
  group_by(dest) %>% 
  summarise(count = n()) %>% 
  arrange(desc(count))
freq_dest
```

    ## # A tibble: 105 x 2
    ##    dest  count
    ##    <chr> <int>
    ##  1 ORD   17283
    ##  2 ATL   17215
    ##  3 LAX   16174
    ##  4 BOS   15508
    ##  5 MCO   14082
    ##  6 CLT   14064
    ##  7 SFO   13331
    ##  8 FLL   12055
    ##  9 MIA   11728
    ## 10 DCA    9705
    ## # … with 95 more rows
…
``` r
named_dests <- 
  flights_with_airport_names %>%
  group_by(dest) %>% 
  summarise(num_flights = n()) %>% 
  arrange(desc(num_flights)) %>% 
  inner_join(airports, by = c("dest"= "faa")) %>% 
  rename(airport_name = "name")
named_dests
```

    ## # A tibble: 101 x 9
    ##    dest  num_flights airport_name       lat    lon   alt    tz dst   tzone 
    ##    <chr>       <int> <chr>            <dbl>  <dbl> <int> <dbl> <chr> <chr> 
    ##  1 ORD         17283 Chicago Ohare I…  42.0  -87.9   668    -6 A     Ameri…
    ##  2 ATL         17215 Hartsfield Jack…  33.6  -84.4  1026    -5 A     Ameri…
    ##  3 LAX         16174 Los Angeles Intl  33.9 -118.    126    -8 A     Ameri…
    ##  4 BOS         15508 General Edward …  42.4  -71.0    19    -5 A     Ameri…
    ##  5 MCO         14082 Orlando Intl      28.4  -81.3    96    -5 A     Ameri…
    ##  6 CLT         14064 Charlotte Dougl…  35.2  -80.9   748    -5 A     Ameri…
    ##  7 SFO         13331 San Francisco I…  37.6 -122.     13    -8 A     Ameri…
    ##  8 FLL         12055 Fort Lauderdale…  26.1  -80.2     9    -5 A     Ameri…
    ##  9 MIA         11728 Miami Intl        25.8  -80.3     8    -5 A     Ameri…
    ## 10 DCA          9705 Ronald Reagan W…  38.9  -77.0    15    -5 A     Ameri…
    ## # … with 91 more rows

### Using multiple `key` variables to `join`

``` r
flights_weather_joined <- flights %>% 
  inner_join(weather, by = c("year", "month", "day", "hour","origin"))
flights_weather_joined
```

    ## # A tibble: 335,220 x 31
    ##     year month   day dep_time sched_dep_time dep_delay arr_time
    ##    <dbl> <dbl> <int>    <int>          <int>     <dbl>    <int>
    ##  1  2013     1     1      517            515         2      830
    ##  2  2013     1     1      533            529         4      850
    ##  3  2013     1     1      542            540         2      923
    ##  4  2013     1     1      544            545        -1     1004
    ##  5  2013     1     1      554            600        -6      812
    ##  6  2013     1     1      554            558        -4      740
    ##  7  2013     1     1      555            600        -5      913
    ##  8  2013     1     1      557            600        -3      709
    ##  9  2013     1     1      557            600        -3      838
    ## 10  2013     1     1      558            600        -2      753
    ## # … with 335,210 more rows, and 24 more variables: sched_arr_time <int>,
    ## #   arr_delay <dbl>, carrier <chr>, flight <int>, tailnum <chr>,
    ## #   origin <chr>, dest <chr>, air_time <dbl>, distance <dbl>, hour <dbl>,
    ## #   minute <dbl>, time_hour.x <dttm>, gain <dbl>, temp <dbl>, dewp <dbl>,
    ## #   humid <dbl>, wind_dir <dbl>, wind_speed <dbl>, wind_gust <dbl>,
    ## #   precip <dbl>, pressure <dbl>, visib <dbl>, time_hour.y <dttm>,
    ## #   temp_in_c <dbl>
…
``` r
dem_score
```

    ## # A tibble: 96 x 10
    ##    country   `1952` `1957` `1962` `1967` `1972` `1977` `1982` `1987` `1992`
    ##    <chr>      <dbl>  <dbl>  <dbl>  <dbl>  <dbl>  <dbl>  <dbl>  <dbl>  <dbl>
    ##  1 Albania       -9     -9     -9     -9     -9     -9     -9     -9      5
    ##  2 Argentina     -9     -1     -1     -9     -9     -9     -8      8      7
    ##  3 Armenia       -9     -7     -7     -7     -7     -7     -7     -7      7
    ##  4 Australia     10     10     10     10     10     10     10     10     10
    ##  5 Austria       10     10     10     10     10     10     10     10     10
    ##  6 Azerbaij…     -9     -7     -7     -7     -7     -7     -7     -7      1
    ##  7 Belarus       -9     -7     -7     -7     -7     -7     -7     -7      7
    ##  8 Belgium       10     10     10     10     10     10     10     10     10
    ##  9 Bhutan       -10    -10    -10    -10    -10    -10    -10    -10    -10
    ## 10 Bolivia       -4     -3     -3     -4     -7     -7      8      9      9
    ## # … with 86 more rows

In this `dem_score` data frame, the minimum value of `-10` corresponds
to a highly autocratic nation whereas a value of `10` corresponds to a
highly democratic nation.

## Analysing `drinks` data from `fivethirtyeight`

``` r
drinks
```

    ## # A tibble: 193 x 5
    ##    country   beer_servings spirit_servings wine_servings total_litres_of_p…
    ##    <chr>             <int>           <int>         <int>              <dbl>
    ##  1 Afghanis…             0               0             0                0  
    ##  2 Albania              89             132            54                4.9
    ##  3 Algeria              25               0            14                0.7
    ##  4 Andorra             245             138           312               12.4
    ##  5 Angola              217              57            45                5.9
    ##  6 Antigua …           102             128            45                4.9
    ##  7 Argentina           193              25           221                8.3
    ##  8 Armenia              21             179            11                3.8
    ##  9 Australia           261              72           212               10.4
    ## 10 Austria             279              75           191                9.7
    ## # … with 183 more rows
…
